[gd_scene load_steps=5 format=2]

[ext_resource path="res://scene.gd" type="Script" id=1]
[ext_resource path="res://alphabet.png" type="Texture" id=2]
[ext_resource path="res://icon.png" type="Texture" id=3]

[sub_resource type="RectangleShape2D" id=1]

custom_solver_bias = 0.0
extents = Vector2( 1405, 953 )

[node name="scene" type="Node2D" index="0"]

script = ExtResource( 1 )

[node name="Sprite" type="Sprite" parent="." index="0"]

texture = ExtResource( 2 )
centered = false
_sections_unfolded = [ "Transform" ]

[node name="Area2D" type="Area2D" parent="Sprite" index="0"]

input_pickable = true
gravity_vec = Vector2( 0, 1 )
gravity = 98.0
linear_damp = 0.1
angular_damp = 1.0
audio_bus_override = false
audio_bus_name = "Master"

[node name="CollisionShape2D" type="CollisionShape2D" parent="Sprite/Area2D" index="0"]

position = Vector2( 1405, 953 )
shape = SubResource( 1 )
_sections_unfolded = [ "Transform" ]

[node name="Sprite2" type="Sprite" parent="." index="1"]

position = Vector2( -1066.22, -1035.04 )
scale = Vector2( 3, 3 )
texture = ExtResource( 3 )
offset = Vector2( 500, 500 )
_sections_unfolded = [ "Offset", "Transform" ]

[node name="CanvasLayer" type="CanvasLayer" parent="." index="2"]

layer = 1
offset = Vector2( 0, 0 )
rotation = 0.0
scale = Vector2( 1, 1 )
transform = Transform2D( 1, 0, 0, 1, 0, 0 )

[node name="TextureRect" type="TextureRect" parent="CanvasLayer" index="0"]

anchor_left = 0.0
anchor_top = 0.0
anchor_right = 0.01
anchor_bottom = 0.0
margin_left = 143.0
margin_top = 800.0
margin_right = 195.9
margin_bottom = 864.0
rect_pivot_offset = Vector2( 0, 0 )
mouse_filter = 1
mouse_default_cursor_shape = 0
size_flags_horizontal = 1
size_flags_vertical = 1
texture = ExtResource( 3 )
stretch_mode = 0
_sections_unfolded = [ "Anchor", "Margin" ]

[connection signal="input_event" from="Sprite/Area2D" to="." method="_on_Area2D_input_event"]


